…
    ##    user  system elapsed 
    ##   0.036   0.000   0.036

``` r
t_end <- Sys.time()

spc_gathered
```

    ## # A tibble: 284 x 6
    ##    unique_id        file_id    sample_id   spc       wavenumbers metadata 
    ##    <chr>            <chr>      <chr>       <list>    <list>      <list>   
    ##  1 BF_lo_01_soil_c… BF_lo_01_… BF_lo_01_s… <data.ta… <dbl [1,71… <tibble …
    ##  2 BF_lo_01_soil_c… BF_lo_01_… BF_lo_01_s… <data.ta… <dbl [1,71… <tibble …
    ##  3 BF_lo_01_soil_c… BF_lo_01_… BF_lo_01_s… <data.ta… <dbl [1,71… <tibble …
    ##  4 BF_lo_02_soil_c… BF_lo_02_… BF_lo_02_s… <data.ta… <dbl [1,71… <tibble …
    ##  5 BF_lo_02_soil_c… BF_lo_02_… BF_lo_02_s… <data.ta… <dbl [1,71… <tibble …
    ##  6 BF_lo_02_soil_c… BF_lo_02_… BF_lo_02_s… <data.ta… <dbl [1,71… <tibble …
    ##  7 BF_lo_03_soil_c… BF_lo_03_… BF_lo_03_s… <data.ta… <dbl [1,71… <tibble …
    ##  8 BF_lo_03_soil_c… BF_lo_03_… BF_lo_03_s… <data.ta… <dbl [1,71… <tibble …
    ##  9 BF_lo_03_soil_c… BF_lo_03_… BF_lo_03_s… <data.ta… <dbl [1,71… <tibble …
    ## 10 BF_lo_04_soil_c… BF_lo_04_… BF_lo_04_s… <data.ta… <dbl [1,71… <tibble …
    ## # ... with 274 more rows
…
  spc_tbl_nested %>%
    dplyr::mutate(part_id = as.integer(part_id)) %>%
    tidyr::unnest()
}

spc_gathered %>%
    partition_spc()
```

    ## # A tibble: 284 x 7
    ##    sample_id  part_id unique_id     file_id  spc     wavenumbers metadata 
    ##    <chr>        <int> <chr>         <chr>    <list>  <list>      <list>   
    ##  1 BF_lo_01_…       6 BF_lo_01_soi… BF_lo_0… <data.… <dbl [1,71… <tibble …
    ##  2 BF_lo_01_…       6 BF_lo_01_soi… BF_lo_0… <data.… <dbl [1,71… <tibble …
    ##  3 BF_lo_01_…       6 BF_lo_01_soi… BF_lo_0… <data.… <dbl [1,71… <tibble …
    ##  4 BF_lo_02_…       3 BF_lo_02_soi… BF_lo_0… <data.… <dbl [1,71… <tibble …
    ##  5 BF_lo_02_…       3 BF_lo_02_soi… BF_lo_0… <data.… <dbl [1,71… <tibble …
    ##  6 BF_lo_02_…       3 BF_lo_02_soi… BF_lo_0… <data.… <dbl [1,71… <tibble …
    ##  7 BF_lo_03_…       6 BF_lo_03_soi… BF_lo_0… <data.… <dbl [1,71… <tibble …
    ##  8 BF_lo_03_…       6 BF_lo_03_soi… BF_lo_0… <data.… <dbl [1,71… <tibble …
    ##  9 BF_lo_03_…       6 BF_lo_03_soi… BF_lo_0… <data.… <dbl [1,71… <tibble …
    ## 10 BF_lo_04_…       2 BF_lo_04_soi… BF_lo_0… <data.… <dbl [1,71… <tibble …
    ## # ... with 274 more rows
…
    ##    user  system elapsed 
    ##  30.114   3.290   6.362

``` r
spc_proc
```

    ## $`1`
    ## # A tibble: 36 x 12
    ##    sample_id part_id unique_id file_id spc   wavenumbers metadata spc_rs
    ##    <chr>       <int> <chr>     <chr>   <lis> <list>      <list>   <list>
    ##  1 BF_lo_09…       1 BF_lo_09… BF_lo_… <dat… <dbl [1,71… <tibble… <data…
    ##  2 BF_lo_09…       1 BF_lo_09… BF_lo_… <dat… <dbl [1,71… <tibble… <data…
    ##  3 BF_lo_09…       1 BF_lo_09… BF_lo_… <dat… <dbl [1,71… <tibble… <data…
    ##  4 BF_lo_12…       1 BF_lo_12… BF_lo_… <dat… <dbl [1,71… <tibble… <data…
    ##  5 BF_lo_12…       1 BF_lo_12… BF_lo_… <dat… <dbl [1,71… <tibble… <data…
    ##  6 BF_lo_12…       1 BF_lo_12… BF_lo_… <dat… <dbl [1,71… <tibble… <data…
    ##  7 BF_lo_17…       1 BF_lo_17… BF_lo_… <dat… <dbl [1,71… <tibble… <data…
    ##  8 BF_lo_17…       1 BF_lo_17… BF_lo_… <dat… <dbl [1,71… <tibble… <data…
    ##  9 BF_lo_17…       1 BF_lo_17… BF_lo_… <dat… <dbl [1,71… <tibble… <data…
    ## 10 BF_lo_18…       1 BF_lo_18… BF_lo_… <dat… <dbl [1,71… <tibble… <data…
    ## # ... with 26 more rows, and 4 more variables: wavenumbers_rs <list>,
    ## #   spc_mean <list>, spc_pre <list>, xvalues_pre <list>
    ## 
    ## $`2`
    ## # A tibble: 38 x 12
    ##    sample_id part_id unique_id file_id spc   wavenumbers metadata spc_rs
    ##    <chr>       <int> <chr>     <chr>   <lis> <list>      <list>   <list>
    ##  1 BF_lo_06…       2 BF_lo_06… BF_lo_… <dat… <dbl [1,71… <tibble… <data…
    ##  2 BF_lo_06…       2 BF_lo_06… BF_lo_… <dat… <dbl [1,71… <tibble… <data…
    ##  3 BF_lo_06…       2 BF_lo_06… BF_lo_… <dat… <dbl [1,71… <tibble… <data…
    ##  4 BF_mo_08…       2 BF_mo_08… BF_mo_… <dat… <dbl [1,71… <tibble… <data…
    ##  5 BF_mo_08…       2 BF_mo_08… BF_mo_… <dat… <dbl [1,71… <tibble… <data…
    ##  6 BF_mo_09…       2 BF_mo_09… BF_mo_… <dat… <dbl [1,71… <tibble… <data…
    ##  7 BF_mo_09…       2 BF_mo_09… BF_mo_… <dat… <dbl [1,71… <tibble… <data…
    ##  8 BF_mo_09…       2 BF_mo_09… BF_mo_… <dat… <dbl [1,71… <tibble… <data…
    ##  9 BF_mo_17…       2 BF_mo_17… BF_mo_… <dat… <dbl [1,71… <tibble… <data…
    ## 10 BF_mo_17…       2 BF_mo_17… BF_mo_… <dat… <dbl [1,71… <tibble… <data…
    ## # ... with 28 more rows, and 4 more variables: wavenumbers_rs <list>,
    ## #   spc_mean <list>, spc_pre <list>, xvalues_pre <list>
    ## 
    ## $`3`
    ## # A tibble: 36 x 12
    ##    sample_id part_id unique_id file_id spc   wavenumbers metadata spc_rs
    ##    <chr>       <int> <chr>     <chr>   <lis> <list>      <list>   <list>
    ##  1 BF_lo_03…       3 BF_lo_03… BF_lo_… <dat… <dbl [1,71… <tibble… <data…
    ##  2 BF_lo_03…       3 BF_lo_03… BF_lo_… <dat… <dbl [1,71… <tibble… <data…
    ##  3 BF_lo_03…       3 BF_lo_03… BF_lo_… <dat… <dbl [1,71… <tibble… <data…
    ##  4 BF_mo_13…       3 BF_mo_13… BF_mo_… <dat… <dbl [1,71… <tibble… <data…
    ##  5 BF_mo_13…       3 BF_mo_13… BF_mo_… <dat… <dbl [1,71… <tibble… <data…
    ##  6 BF_mo_13…       3 BF_mo_13… BF_mo_… <dat… <dbl [1,71… <tibble… <data…
    ##  7 CI_sb_01…       3 CI_sb_01… CI_sb_… <dat… <dbl [1,71… <tibble… <data…
    ##  8 CI_sb_01…       3 CI_sb_01… CI_sb_… <dat… <dbl [1,71… <tibble… <data…
    ##  9 CI_sb_01…       3 CI_sb_01… CI_sb_… <dat… <dbl [1,71… <tibble… <data…
    ## 10 CI_sb_04…       3 CI_sb_04… CI_sb_… <dat… <dbl [1,71… <tibble… <data…
    ## # ... with 26 more rows, and 4 more variables: wavenumbers_rs <list>,
    ## #   spc_mean <list>, spc_pre <list>, xvalues_pre <list>
    ## 
    ## $`4`
    ## # A tibble: 33 x 12
    ##    sample_id part_id unique_id file_id spc   wavenumbers metadata spc_rs
    ##    <chr>       <int> <chr>     <chr>   <lis> <list>      <list>   <list>
    ##  1 BF_lo_01…       4 BF_lo_01… BF_lo_… <dat… <dbl [1,71… <tibble… <data…
    ##  2 BF_lo_01…       4 BF_lo_01… BF_lo_… <dat… <dbl [1,71… <tibble… <data…
    ##  3 BF_lo_01…       4 BF_lo_01… BF_lo_… <dat… <dbl [1,71… <tibble… <data…
    ##  4 BF_lo_02…       4 BF_lo_02… BF_lo_… <dat… <dbl [1,71… <tibble… <data…
    ##  5 BF_lo_02…       4 BF_lo_02… BF_lo_… <dat… <dbl [1,71… <tibble… <data…
    ##  6 BF_lo_02…       4 BF_lo_02… BF_lo_… <dat… <dbl [1,71… <tibble… <data…
    ##  7 BF_lo_08…       4 BF_lo_08… BF_lo_… <dat… <dbl [1,71… <tibble… <data…
    ##  8 BF_lo_08…       4 BF_lo_08… BF_lo_… <dat… <dbl [1,71… <tibble… <data…
    ##  9 BF_lo_08…       4 BF_lo_08… BF_lo_… <dat… <dbl [1,71… <tibble… <data…
    ## 10 BF_mo_01…       4 BF_mo_01… BF_mo_… <dat… <dbl [1,71… <tibble… <data…
    ## # ... with 23 more rows, and 4 more variables: wavenumbers_rs <list>,
    ## #   spc_mean <list>, spc_pre <list>, xvalues_pre <list>
    ## 
    ## $`5`
    ## # A tibble: 36 x 12
    ##    sample_id part_id unique_id file_id spc   wavenumbers metadata spc_rs
    ##    <chr>       <int> <chr>     <chr>   <lis> <list>      <list>   <list>
    ##  1 BF_lo_04…       5 BF_lo_04… BF_lo_… <dat… <dbl [1,71… <tibble… <data…
    ##  2 BF_lo_04…       5 BF_lo_04… BF_lo_… <dat… <dbl [1,71… <tibble… <data…
    ##  3 BF_lo_04…       5 BF_lo_04… BF_lo_… <dat… <dbl [1,71… <tibble… <data…
    ##  4 BF_lo_10…       5 BF_lo_10… BF_lo_… <dat… <dbl [1,71… <tibble… <data…
    ##  5 BF_lo_10…       5 BF_lo_10… BF_lo_… <dat… <dbl [1,71… <tibble… <data…
    ##  6 BF_lo_10…       5 BF_lo_10… BF_lo_… <dat… <dbl [1,71… <tibble… <data…
    ##  7 BF_lo_19…       5 BF_lo_19… BF_lo_… <dat… <dbl [1,71… <tibble… <data…
    ##  8 BF_lo_19…       5 BF_lo_19… BF_lo_… <dat… <dbl [1,71… <tibble… <data…
    ##  9 BF_lo_19…       5 BF_lo_19… BF_lo_… <dat… <dbl [1,71… <tibble… <data…
    ## 10 BF_mo_11…       5 BF_mo_11… BF_mo_… <dat… <dbl [1,71… <tibble… <data…
    ## # ... with 26 more rows, and 4 more variables: wavenumbers_rs <list>,
    ## #   spc_mean <list>, spc_pre <list>, xvalues_pre <list>
    ## 
    ## $`6`
    ## # A tibble: 36 x 12
    ##    sample_id part_id unique_id file_id spc   wavenumbers metadata spc_rs
    ##    <chr>       <int> <chr>     <chr>   <lis> <list>      <list>   <list>
    ##  1 BF_lo_05…       6 BF_lo_05… BF_lo_… <dat… <dbl [1,71… <tibble… <data…
    ##  2 BF_lo_05…       6 BF_lo_05… BF_lo_… <dat… <dbl [1,71… <tibble… <data…
    ##  3 BF_lo_05…       6 BF_lo_05… BF_lo_… <dat… <dbl [1,71… <tibble… <data…
    ##  4 BF_lo_11…       6 BF_lo_11… BF_lo_… <dat… <dbl [1,71… <tibble… <data…
    ##  5 BF_lo_11…       6 BF_lo_11… BF_lo_… <dat… <dbl [1,71… <tibble… <data…
    ##  6 BF_lo_11…       6 BF_lo_11… BF_lo_… <dat… <dbl [1,71… <tibble… <data…
    ##  7 BF_lo_16…       6 BF_lo_16… BF_lo_… <dat… <dbl [1,71… <tibble… <data…
    ##  8 BF_lo_16…       6 BF_lo_16… BF_lo_… <dat… <dbl [1,71… <tibble… <data…
    ##  9 BF_lo_16…       6 BF_lo_16… BF_lo_… <dat… <dbl [1,71… <tibble… <data…
    ## 10 BF_mo_19…       6 BF_mo_19… BF_mo_… <dat… <dbl [1,71… <tibble… <data…
    ## # ... with 26 more rows, and 4 more variables: wavenumbers_rs <list>,
    ## #   spc_mean <list>, spc_pre <list>, xvalues_pre <list>
    ## 
    ## $`7`
    ## # A tibble: 36 x 12
    ##    sample_id part_id unique_id file_id spc   wavenumbers metadata spc_rs
    ##    <chr>       <int> <chr>     <chr>   <lis> <list>      <list>   <list>
    ##  1 BF_lo_14…       7 BF_lo_14… BF_lo_… <dat… <dbl [1,71… <tibble… <data…
    ##  2 BF_lo_14…       7 BF_lo_14… BF_lo_… <dat… <dbl [1,71… <tibble… <data…
    ##  3 BF_lo_14…       7 BF_lo_14… BF_lo_… <dat… <dbl [1,71… <tibble… <data…
    ##  4 BF_lo_20…       7 BF_lo_20… BF_lo_… <dat… <dbl [1,71… <tibble… <data…
    ##  5 BF_lo_20…       7 BF_lo_20… BF_lo_… <dat… <dbl [1,71… <tibble… <data…
    ##  6 BF_lo_20…       7 BF_lo_20… BF_lo_… <dat… <dbl [1,71… <tibble… <data…
    ##  7 CI_sb_09…       7 CI_sb_09… CI_sb_… <dat… <dbl [1,71… <tibble… <data…
    ##  8 CI_sb_09…       7 CI_sb_09… CI_sb_… <dat… <dbl [1,71… <tibble… <data…
    ##  9 CI_sb_09…       7 CI_sb_09… CI_sb_… <dat… <dbl [1,71… <tibble… <data…
    ## 10 CI_sb_15…       7 CI_sb_15… CI_sb_… <dat… <dbl [1,71… <tibble… <data…
    ## # ... with 26 more rows, and 4 more variables: wavenumbers_rs <list>,
    ## #   spc_mean <list>, spc_pre <list>, xvalues_pre <list>
    ## 
    ## $`8`
    ## # A tibble: 33 x 12
    ##    sample_id part_id unique_id file_id spc   wavenumbers metadata spc_rs
    ##    <chr>       <int> <chr>     <chr>   <lis> <list>      <list>   <list>
    ##  1 BF_lo_07…       8 BF_lo_07… BF_lo_… <dat… <dbl [1,71… <tibble… <data…
    ##  2 BF_lo_07…       8 BF_lo_07… BF_lo_… <dat… <dbl [1,71… <tibble… <data…
    ##  3 BF_lo_07…       8 BF_lo_07… BF_lo_… <dat… <dbl [1,71… <tibble… <data…
    ##  4 BF_lo_13…       8 BF_lo_13… BF_lo_… <dat… <dbl [1,71… <tibble… <data…
    ##  5 BF_lo_13…       8 BF_lo_13… BF_lo_… <dat… <dbl [1,71… <tibble… <data…
    ##  6 BF_lo_13…       8 BF_lo_13… BF_lo_… <dat… <dbl [1,71… <tibble… <data…
    ##  7 BF_lo_15…       8 BF_lo_15… BF_lo_… <dat… <dbl [1,71… <tibble… <data…
    ##  8 BF_lo_15…       8 BF_lo_15… BF_lo_… <dat… <dbl [1,71… <tibble… <data…
    ##  9 BF_lo_15…       8 BF_lo_15… BF_lo_… <dat… <dbl [1,71… <tibble… <data…
    ## 10 BF_mo_02…       8 BF_mo_02… BF_mo_… <dat… <dbl [1,71… <tibble… <data…
    ## # ... with 23 more rows, and 4 more variables: wavenumbers_rs <list>,
    ## #   spc_mean <list>, spc_pre <list>, xvalues_pre <list>
…
